{
  "compilerOptions": {
    "target": "esnext",
    "paths": {
      "@components/*": ["components/*"],
      "@pages/*": ["pages/*"],
      "@test/*": ["test/*"],
      "@hooks/*": ["hooks/*"],
      "@config/*": ["config/*"]
    },
    "module": "es2015",
    "moduleResolution": "node",
    "jsx": "preserve",
    "baseUrl": ".",
    "allowJs": true
  },
  "exclude": ["node_modules", "**/node_modules/*"]
}
